[

{"type":"short_answer","statement":"hello people?","answer":["answer123"]},

{"type":"long_answer","statement":"long question?","answer":["longanswer123"]},
{
"type":"radio_answer","statement":"radio_question?","option":["option1","option2"],"answer":["option2"]
},
{
"type":"checkbox_answer","statement":"checkbox question?","option":["option1","option2"],"answer":["option2"]
}
]